…
#> 
#> $description
#> [1] "INFORMATION ABOUT THE PROJECTION  INFORMATION ABOUT THE PLOT word_data = DP_projections_HILS_SWLS_100 k_n_words_to_test = FALSE min_freq_words_test = 1 min_freq_words_plot = 1 plot_n_words_square = 5 plot_n_words_p = 5 plot_n_word_extreme = 1 plot_n_word_frequency = 1 plot_n_words_middle = 1 y_axes = TRUE p_alpha = 0.05 p_adjust_method = bonferroni bivariate_color_codes = #398CF9 #60A1F7 #5dc688 #e07f6a #EAEAEA #40DD52 #FF0000 #EA7467 #85DB8E word_size_range = 3 - 8 position_jitter_hight = 0 position_jitter_width = 0.03 point_size = 0.5 arrow_transparency = 0.5 points_without_words_size = 0.4 points_without_words_alpha = 0.4 legend_x_position = 0.02 legend_y_position = 0.02 legend_h_size = 0.2 legend_w_size = 0.2 legend_title_size = 7 legend_number_size = 2"
#> 
#> $processed_word_data
#> # A tibble: 583 x 32
#>    words    dot.x p_values_dot.x n_g1.x n_g2.x  dot.y p_values_dot.y n_g1.y
#>    <chr>    <dbl>          <dbl>  <dbl>  <dbl>  <dbl>          <dbl>  <dbl>
#>  1 able   6.86e-1     0.194          NA      1  2.31      0.0123         NA
#>  2 acce…  1.52e+0     0.0272         -1      2  1.15      0.0620         -1
#>  3 acco…  2.14e+0     0.00856        NA      1  3.51      0.00273        NA
#>  4 acti…  1.23e+0     0.0503         NA      1  1.56      0.0361         NA
#>  5 adap… -3.87e-4     0.969          -1     NA  0.331     0.476          -1
#>  6 admi…  5.14e-1     0.315          NA      1  1.52      0.0398         NA
#>  7 adri… -3.79e+0     0.00000100     -1     NA -3.60      0.00000100     -1
#>  8 affi…  7.49e-1     0.150          NA      1  2.04      0.0184         NA
#>  9 agre…  2.23e+0     0.00626        NA      1  1.69      0.0312         NA
#> 10 alco… -5.51e-1     0.318          -1     NA -1.07      0.0605         -1
#> # … with 573 more rows, and 24 more variables: n_g2.y <dbl>, n <int>,
#> #   n.percent <dbl>, N_participant_responses <int>, adjusted_p_values.x <dbl>,
#> #   adjusted_p_values.y <dbl>, square_categories <dbl>, check_p_square <dbl>,
#> #   check_p_x_neg <dbl>, check_p_x_pos <dbl>, check_extreme_max_x <dbl>,
#> #   check_extreme_min_x <dbl>, check_extreme_frequency_x <dbl>,
#> #   check_middle_x <dbl>, extremes_all_x <dbl>, check_p_y_pos <dbl>,
#> #   check_p_y_neg <dbl>, check_extreme_max_y <dbl>, check_extreme_min_y <dbl>,
#> #   check_extreme_frequency_y <dbl>, check_middle_y <dbl>,
#> #   extremes_all_y <dbl>, extremes_all <dbl>, colour_categories <chr>
…
